<?xml version="1.0" encoding="UTF-8"?>
<svg width="12px" height="8px" viewBox="0 0 12 8" version="1.1" xmlns="http://www.w3.org/2000/svg" xmlns:xlink="http://www.w3.org/1999/xlink">
    <!-- Generator: Sketch 39.1 (31720) - http://www.bohemiancoding.com/sketch -->
    <title>Triangle</title>
    <desc>Created with Sketch.</desc>
    <defs></defs>
    <g id="Page-1" stroke="none" stroke-width="1" fill="none" fill-rule="evenodd">
        <g id="Desktop-Header-1278-Info-Goal" transform="translate(-935.000000, -196.000000)" fill="#D8D8D8">
            <polygon id="Triangle" transform="translate(941.000000, 200.000000) scale(-1, -1) translate(-941.000000, -200.000000) " points="941 196 947 204 935 204"></polygon>
        </g>
    </g>
</svg>